Assignment 7 - Repeated measure
…
4.2.1 Getting Residuals

Code

library(broom.mixed)

mod3_gen_resid <- augment(mod3_gen) %>%
  mutate(.stdresid=resid(mod3_gen, 
                         type="pearson", 
                         scaled=T))

mod3_gen_resid

# A tibble: 144 × 14
   trt   block nrate_kgha krate_kgha trtname wplot splot yield_kgha   dap fdap 
   <fct> <fct> <fct>      <fct>      <fct>   <fct> <fct>      <int> <int> <fct>
 1 1     1     0          0          0+0     101   101-1       5488   120 120  
 2 1     1     0          0          0+0     101   101-1       5898   130 130  
 3 1     1     0          0          0+0     101   101-1       6133   140 140  
 4 1     1     0          0          0+0     101   101-1       6151   150 150  
 5 2     1     0          30         0+30    102   102-1       4448   120 120  
 6 2     1     0          30         0+30    102   102-1       4842   130 130  
 7 2     1     0          30         0+30    102   102-1       5057   140 140  
 8 2     1     0          30         0+30    102   102-1       5094   150 150  
 9 3     1     0          60         0+60    103   103-1       7445   120 120  
10 3     1     0          60         0+60    103   103-1       7901   130 130  
# ℹ 134 more rows
# ℹ 4 more variables: .fitted <dbl>, .resid <dbl>, .fixed <dbl>,
#   .stdresid <dbl>

Code

library(broom.mixed)

mod1_default_resid <- augment(mod1_default) %>%
  mutate(.stdresid=resid(mod1_default, 
                         type="pearson", 
                         scaled=T))

mod1_default_resid

# A tibble: 144 × 14
   trt   block nrate_kgha krate_kgha trtname wplot splot yield_kgha   dap fdap 
   <fct> <fct> <fct>      <fct>      <fct>   <fct> <fct>      <int> <int> <fct>
 1 1     1     0          0          0+0     101   101-1       5488   120 120  
 2 1     1     0          0          0+0     101   101-1       5898   130 130  
 3 1     1     0          0          0+0     101   101-1       6133   140 140  
 4 1     1     0          0          0+0     101   101-1       6151   150 150  
 5 2     1     0          30         0+30    102   102-1       4448   120 120  
 6 2     1     0          30         0+30    102   102-1       4842   130 130  
 7 2     1     0          30         0+30    102   102-1       5057   140 140  
 8 2     1     0          30         0+30    102   102-1       5094   150 150  
 9 3     1     0          60         0+60    103   103-1       7445   120 120  
10 3     1     0          60         0+60    103   103-1       7901   130 130  
# ℹ 134 more rows
# ℹ 4 more variables: .fitted <dbl>, .resid <dbl>, .fixed <dbl>,
#   .stdresid <dbl>
…
